{
	"reviews": [
		{
			"id": "HL-SgVyqb_8MwLbc4189qw",
			"url": "https://www.yelp.com/biz/arts-auto-glass-chula-vista-2?adjust_creative=QWO8UtC78H5nTgbIzIGmsw&hrid=HL-SgVyqb_8MwLbc4189qw&utm_campaign=yelp_api_v3&utm_medium=api_v3_business_reviews&utm_source=QWO8UtC78H5nTgbIzIGmsw",
			"text": "Called Arturo at 9am on a Monday after some punk threw a rock through my window. He was super easy to talk to on the phone and gave a reasonable price. He...",
			"rating": 5,
			"time_created": "2023-09-18 14:53:39",
			"user": {
				"id": "TfHuKPT_hJeBkfFXjpKRRQ",
				"profile_url": "https://www.yelp.com/user_details?userid=TfHuKPT_hJeBkfFXjpKRRQ",
				"image_url": "https://s3-media2.fl.yelpcdn.com/photo/wu0BWeofa-872uO7cDWQ9g/o.jpg",
				"name": "Garrett T."
			}
		},
		{
			"id": "MhwCSj4duJgLzW2KMgX1zA",
			"url": "https://www.yelp.com/biz/arts-auto-glass-chula-vista-2?adjust_creative=QWO8UtC78H5nTgbIzIGmsw&hrid=MhwCSj4duJgLzW2KMgX1zA&utm_campaign=yelp_api_v3&utm_medium=api_v3_business_reviews&utm_source=QWO8UtC78H5nTgbIzIGmsw",
			"text": "Texted Art for windshield replacement on my Jetta, and he schedule me for next day and came on time. Installation took 45 minutes. The job was done clean...",
			"rating": 5,
			"time_created": "2022-11-01 17:13:56",
			"user": {
				"id": "FJOAHap66qDMielcR0pvAw",
				"profile_url": "https://www.yelp.com/user_details?userid=FJOAHap66qDMielcR0pvAw",
				"image_url": null,
				"name": "Christian T."
			}
		},
		{
			"id": "03Bx2cN_VjNfNc1KMCgn5A",
			"url": "https://www.yelp.com/biz/arts-auto-glass-chula-vista-2?adjust_creative=QWO8UtC78H5nTgbIzIGmsw&hrid=03Bx2cN_VjNfNc1KMCgn5A&utm_campaign=yelp_api_v3&utm_medium=api_v3_business_reviews&utm_source=QWO8UtC78H5nTgbIzIGmsw",
			"text": "This guy was awesome! Offered the best price after ridiculous quotes from other places Highly recommend",
			"rating": 5,
			"time_created": "2021-11-18 15:32:50",
			"user": {
				"id": "Xu5qE6YJCzdHUdoUfww3SA",
				"profile_url": "https://www.yelp.com/user_details?userid=Xu5qE6YJCzdHUdoUfww3SA",
				"image_url": "https://s3-media3.fl.yelpcdn.com/photo/CDIRZ2dsDVBqamoigBrS6A/o.jpg",
				"name": "Jonathan M."
			}
		}
	],
	"total": 20,
	"possible_languages": [
		"en"
	]
}
